<?xml version="1.0" encoding="utf-8"?>
<!-- Generator: Adobe Illustrator 19.2.0, SVG Export Plug-In . SVG Version: 6.00 Build 0)  -->
<svg version="1.1" id="grillhot" xmlns="http://www.w3.org/2000/svg" xmlns:xlink="http://www.w3.org/1999/xlink" x="0px" y="0px"
	 viewBox="0 0 216 217.5978" enable-background="new 0 0 216 217.5978" xml:space="preserve">
<g>
	<path fill="#D8D8D8" d="M32.3965,103.9982c3.9531,19.8887,36.9668,36,75.6035,36s71.6504-16.1113,75.6035-36H32.3965z"/>
	<path fill="#535353" d="M187.2939,115.9982H216v-8h-25.2122c0.7361-2.6025,1.2122-5.2607,1.2122-8c0-2.209-1.791-4-4-4H28
		c-2.209,0-4,1.791-4,4c0,2.7393,0.4761,5.3975,1.2122,8H0v8h28.3965v-0.4922c7.8574,13.5566,25.7974,24.2227,49.0178,29.2725
		L26.4004,212.799l6.4004,4.7988l52.7988-70.4004l-1.5078-1.1309c7.5576,1.2393,15.5608,1.9316,23.9082,1.9316
		s16.3506-0.6924,23.9082-1.9316l-1.5078,1.1309l52.7988,70.4004l6.4004-4.7988l-51.0139-68.0205
		C161.5217,139.7907,179.2888,129.3185,187.2939,115.9982z M108,139.9982c-38.6367,0-71.6504-16.1113-75.6035-36h151.207
		C179.6504,123.8869,146.6367,139.9982,108,139.9982z"/>
	<path fill="#535353" d="M84.748,68.9904c-1.8691,1.1777-2.4316,3.6465-1.2539,5.5156c0.7598,1.209,2.0605,1.8691,3.3887,1.8691
		c0.7285,0,1.4648-0.1992,2.127-0.6152c0.7012-0.4414,17-11.1309,2.8574-39.2949c-3.8184-7.6035-4.8184-14.209-2.9707-19.6328
		c2.1641-6.3613,7.7109-9.1426,7.8633-9.2168c1.9863-0.9375,2.8477-3.3047,1.9219-5.3008
		c-0.9297-2.0059-3.3105-2.8672-5.3125-1.9453c-0.3516,0.1641-8.6348,4.0996-11.9883,13.7168
		c-2.6387,7.5684-1.5156,16.3047,3.3379,25.9688C95.4473,61.4201,85.1387,68.7248,84.748,68.9904z"/>
	<path fill="#535353" d="M104.748,68.9904c-1.8691,1.1777-2.4316,3.6465-1.2539,5.5156c0.7598,1.209,2.0605,1.8691,3.3887,1.8691
		c0.7285,0,1.4648-0.1992,2.127-0.6152c0.7012-0.4414,17-11.1309,2.8574-39.2949c-3.8184-7.6035-4.8184-14.209-2.9707-19.6328
		c2.1641-6.3613,7.7109-9.1426,7.8633-9.2168c1.9863-0.9375,2.8477-3.3047,1.9219-5.3008
		c-0.9317-2.0059-3.3125-2.8672-5.3125-1.9453c-0.3516,0.1641-8.6348,4.0996-11.9883,13.7168
		c-2.6387,7.5684-1.5156,16.3047,3.3379,25.9688C115.4473,61.4201,105.1387,68.7248,104.748,68.9904z"/>
	<path fill="#535353" d="M124.748,68.9904c-1.8691,1.1777-2.4316,3.6465-1.2539,5.5156c0.7598,1.209,2.0605,1.8691,3.3887,1.8691
		c0.7285,0,1.4648-0.1992,2.127-0.6152c0.7012-0.4414,17-11.1309,2.8574-39.2949c-3.8184-7.6035-4.8184-14.209-2.9707-19.6328
		c2.1641-6.3613,7.7109-9.1426,7.8633-9.2168c1.9863-0.9375,2.8477-3.3047,1.9219-5.3008
		c-0.9317-2.0059-3.3125-2.8672-5.3125-1.9453c-0.3516,0.1641-8.6348,4.0996-11.9883,13.7168
		c-2.6387,7.5684-1.5156,16.3047,3.3379,25.9688C135.4473,61.4201,125.1387,68.7248,124.748,68.9904z"/>
</g>
</svg>
